<svg width="30" height="30" viewBox="0 0 30 30" fill="none" xmlns="http://www.w3.org/2000/svg">
<path fill-rule="evenodd" clip-rule="evenodd" d="M5.00299 0H24.997C27.7473 0 30 2.25269 30 5.00299V24.997C30 27.7473 27.7473 30 24.997 30H5.00299C2.25269 30 0 27.7473 0 24.997V5.00299C0 2.25269 2.25269 0 5.00299 0ZM21.9808 15C21.9808 18.8569 18.8569 21.9808 15 21.9808C11.1431 21.9808 8.01916 18.8569 8.01916 15C8.01916 11.1431 11.1431 8.01916 15 8.01916C18.8551 8.01916 21.9808 11.1431 21.9808 15ZM21.8479 7.07066C22.4659 7.07066 22.9707 7.57545 22.9707 8.19341C22.9707 8.81677 22.4659 9.31617 21.8479 9.31617C21.2246 9.31617 20.7251 8.81497 20.7251 8.19341C20.7251 7.57545 21.2246 7.07066 21.8479 7.07066ZM9.29281 5.45569C7.18383 5.45569 5.45569 7.18383 5.45569 9.29281V20.7054C5.45569 22.8198 7.18383 24.5425 9.29281 24.5425H20.7054C22.8198 24.5425 24.5425 22.8198 24.5425 20.7054V9.29281C24.5425 7.18383 22.8198 5.45569 20.7054 5.45569H9.29281V5.45569ZM20.7054 4.17665C23.524 4.17665 25.8216 6.47964 25.8216 9.29281V20.7054C25.8216 23.524 23.524 25.8216 20.7054 25.8216H9.29281C6.47964 25.8216 4.17665 23.5222 4.17665 20.7054V9.29281C4.17665 6.47964 6.47964 4.17665 9.29281 4.17665H20.7054V4.17665ZM9.46707 15C9.46707 18.0539 11.9443 20.5311 14.9982 20.5311C18.0521 20.5311 20.5293 18.0539 20.5293 15C20.5293 11.9461 18.0521 9.46886 14.9982 9.46886C11.9461 9.46886 9.46707 11.9461 9.46707 15Z" fill="#ADADAD"/>
</svg>
